Probabilities, odds, odds ratios – STA 221 - Spring 2025
…
Source: ESPN Gamecast

Do teenagers get 7+ hours of sleep?

Students in grades 9 - 12 were surveyed about health risk behaviors including whether they usually get 7 or more hours of sleep.

Sleep7

1: yes

0: no

# A tibble: 446 × 2
     Age Sleep7
   <int>  <int>
 1    16      1
 2    17      0
 3    18      0
 4    17      1
 5    15      0
 6    17      0
 7    17      1
 8    16      1
 9    16      1
10    18      0
# ℹ 436 more rows
…
