Logistic Regression – STA 221 - Spring 2025
…
Recap

Do teenagers get 7+ hours of sleep?

Students in grades 9 - 12 surveyed about health risk behaviors including whether they usually get 7 or more hours of sleep.

Sleep7

1: yes

0: no

# A tibble: 446 × 6
     Age Sleep7 Sleep           SmokeLife SmokeDaily MarijuaEver
   <int>  <int> <fct>           <fct>     <fct>            <int>
 1    16      1 8 hours         Yes       Yes                  1
 2    17      0 5 hours         Yes       Yes                  1
 3    18      0 5 hours         Yes       Yes                  1
 4    17      1 7 hours         Yes       No                   1
 5    15      0 4 or less hours No        No                   0
 6    17      0 6 hours         No        No                   0
 7    17      1 7 hours         No        No                   0
 8    16      1 8 hours         Yes       No                   0
 9    16      1 8 hours         No        No                   0
10    18      0 4 or less hours Yes       Yes                  1
# ℹ 436 more rows
…
Example

Risk of coronary heart disease

This data set is from an ongoing cardiovascular study on residents of the town of Framingham, Massachusetts. We want to examine the relationship between various health characteristics and the risk of having heart disease.

high_risk: 1 = High risk of having heart disease in next 10 years, 0 = Not high risk of having heart disease in next 10 years

age: Age at exam time (in years)

education: 1 = Some High School, 2 = High School or GED, 3 = Some College or Vocational School, 4 = College

Data: heart_disease

# A tibble: 4,135 × 3
     age education high_risk
   <dbl> <fct>     <fct>    
 1    39 4         0        
 2    46 2         0        
 3    48 1         0        
 4    61 3         1        
 5    46 3         0        
 6    43 2         0        
 7    63 1         1        
 8    45 2         0        
 9    52 1         0        
10    43 1         0        
# ℹ 4,125 more rows
…
. . .

For observation 1

\[\text{predicted probability} = \hat{\pi} = \frac{\exp\{-2.548\}}{1 + \exp\{-2.548\}} = 0.073\]

Predicted classes

# Convert probabilities to binary predictions (0 or 1)
heart_disease_aug <- heart_disease_aug |>
  mutate(predicted_class =  ifelse(predicted_prob > 0.5, 1, 0))
heart_disease_aug |>
  select(predicted_prob, predicted_class) 

# A tibble: 4,135 × 2
   predicted_prob predicted_class
            <dbl>           <dbl>
 1         0.0726               0
 2         0.0948               0
 3         0.134                0
 4         0.240                0
 5         0.0954               0
 6         0.0775               0
 7         0.317                0
 8         0.0887               0
 9         0.172                0
10         0.0967               0
# ℹ 4,125 more rows
…
